…
See `data-raw/aa_corrections.R` for construction.

## Examples

``` r
aa_corrections
#> # A tibble: 42 × 4
#>    bay_seg entity        ad_tons project_tons
#>      <int> <chr>           <dbl>        <dbl>
#>  1       1 CLEARWATER       1.36         6.15
#>  2       1 HILLSBOROUGH     8.8          0   
#>  3       1 LARGO            0.51         0.03
#>  4       1 MacDill AFB      0.03         0   
#>  5       1 OLDSMAR          0.5          0   
#>  6       1 PINELLAS         5.34         1.65
#>  7       1 PINELLAS PARK    0.41         0   
#>  8       1 SAFETY HARBOR    0.5          0.88
#>  9       1 ST PETERSBURG    0.45         0   
#> 10       1 Tampa            1.96         0.11
#> # ℹ 32 more rows
```
