Data frame of all flow data used in anlz_nps_gaged and anlz_nps_ungaged — allflo • tbeploads
…
yr: Year of the observation

mo: Month of the observation

flow_cfs: Numeric value for the average daily flow in cubic feet per second (cfs)

    See also

    util_nps_getusgsflow, util_nps_getextflow, util_nps_getflow

    Examples

allflo
#> # A tibble: 612 × 4
#>    basin       yr    mo flow_cfs
#>    <chr>    <dbl> <dbl>    <dbl>
#>  1 02299950  2021     1     18.7
#>  2 02299950  2021     2     41.9
#>  3 02299950  2021     3     17.1
#>  4 02299950  2021     4     73.7
#>  5 02299950  2021     5      6.8
#>  6 02299950  2021     6     18.7
#>  7 02299950  2021     7    362. 
#>  8 02299950  2021     8    132. 
#>  9 02299950  2021     9    317. 
#> 10 02299950  2021    10     64.7
#> # ℹ 602 more rows
…
