Calculate non-point source (NPS) loads for Tampa Bay — anlz_nps • tbeploads
…
anlz_nps(yrrng = c('2021-01-01', '2023-12-31'), tbbase, rain, mancopth, pincopth,
         lakemanpth, tampabypth, bellshlpth, vernafl, usgsflow, verbose = TRUE)
#> Retrieving flow data...
#> Estimating ungaged NPS loads...
#> Estimating gaged NPS loads...
#> Combining Verna data with NPS ungaged...
#> Combining ungaged and gaged NPS loads, estimating final...
#> # A tibble: 991 × 10
#>     Year Month source segment    basin tn_load tp_load tss_load bod_load hy_load
#>    <dbl> <dbl> <chr>  <chr>      <chr>   <dbl>   <dbl>    <dbl>    <dbl>   <dbl>
#>  1  2021     1 NPS    Boca Cieg… 207-5    2.43   0.398     80.8    14.5   1.22e6
#>  2  2021     2 NPS    Boca Cieg… 207-5    1.65   0.270     54.8     9.85  8.26e5
#>  3  2021     3 NPS    Boca Cieg… 207-5    1.37   0.224     45.5     8.18  6.86e5
#>  4  2021     4 NPS    Boca Cieg… 207-5    1.58   0.258     52.5     9.43  7.91e5
#>  5  2021     5 NPS    Boca Cieg… 207-5    1.21   0.198     40.2     7.23  6.06e5
#>  6  2021     6 NPS    Boca Cieg… 207-5    2.68   0.440     89.4    16.1   1.35e6
#>  7  2021     7 NPS    Boca Cieg… 207-5    9.75   1.60     318.     57.1   4.82e6
#>  8  2021     8 NPS    Boca Cieg… 207-5   20.2    3.33     660.    119.    1.00e7
#>  9  2021     9 NPS    Boca Cieg… 207-5   22.8    3.76     745.    134.    1.13e7
#> 10  2021    10 NPS    Boca Cieg… 207-5    7.19   1.18     235.     42.1   3.55e6
#> # ℹ 981 more rows
…
