…
## See also

[`anlz_ml_facility`](https://tbep-tech.github.io/tbeploads/reference/anlz_ml_facility.md)

## Examples

``` r
fls <- list.files(system.file('extdata/', package = 'tbeploads'),
  pattern = 'ps_indml', full.names = TRUE)
anlz_ml(fls)
#> # A tibble: 60 × 10
#>     Year Month source entity segment   tn_load tp_load tss_load bod_load hy_load
#>    <int> <int> <chr>  <chr>  <chr>       <dbl>   <int>    <int>    <int>   <int>
#>  1  2020     1 ML     CSX    Hillsbor…  0.0743       0        0        0       0
#>  2  2020     2 ML     CSX    Hillsbor…  0.0743       0        0        0       0
#>  3  2020     3 ML     CSX    Hillsbor…  0.0743       0        0        0       0
#>  4  2020     4 ML     CSX    Hillsbor…  0.0743       0        0        0       0
#>  5  2020     5 ML     CSX    Hillsbor…  0.0743       0        0        0       0
#>  6  2020     6 ML     CSX    Hillsbor…  0.0743       0        0        0       0
#>  7  2020     7 ML     CSX    Hillsbor…  0.0743       0        0        0       0
#>  8  2020     8 ML     CSX    Hillsbor…  0.0743       0        0        0       0
#>  9  2020     9 ML     CSX    Hillsbor…  0.0743       0        0        0       0
#> 10  2020    10 ML     CSX    Hillsbor…  0.0743       0        0        0       0
#> # ℹ 50 more rows
```
