Calculate AD loads and summarize — anlz_ad • tbeploads
…
The function first estimates the total hydrologic load for each bay segment using daily estimates of rainfall at NWIS NCDC sites in the watershed.  This is done as a weighted mean of rainfall at the measured sites relative to grid locations in each sub-watershed for the bay segments.  The weights are based on distance of the grid cells from the closest site as inverse distance squared. Total hydrologic load for a bay segment is then estimated by converting inches/month  to m3/month using the segment area. The distance data and bay segment areas are contained in the ad_distance file included with the package.

The total nitrogen and phosphorus loads are then estimated for each bay segment by multiplying the total hydrologic load by the total nitrogen and phosphorus concentrations in the Verna data.  The loading calculations also include a wet/dry deposition conversion factor to account for differences in loading during the rainy and dry seasons.

    See also

    util_ad_getrain, util_ad_prepverna

    Examples

vernafl <- system.file('extdata/verna-raw.csv', package = 'tbeploads')
data(ad_rain)
anlz_ad(ad_rain, vernafl)
#> # A tibble: 672 × 7
#>     Year Month source bayseg         tn_load tp_load hy_load
#>    <int> <dbl> <chr>  <chr>            <dbl>   <dbl>   <dbl>
#>  1  2017     1 AD     Boca Ciega Bay   2.38  0.0404    4.17 
#>  2  2017     2 AD     Boca Ciega Bay   1.78  0.0316    3.68 
#>  3  2017     3 AD     Boca Ciega Bay   0.751 0.0143    1.96 
#>  4  2017     4 AD     Boca Ciega Bay   0.490 0.00765   0.591
#>  5  2017     5 AD     Boca Ciega Bay  10.5   0.152     7.98 
#>  6  2017     6 AD     Boca Ciega Bay  12.6   0.232    29.4  
#>  7  2017     7 AD     Boca Ciega Bay   7.69  0.135    18.6  
#>  8  2017     8 AD     Boca Ciega Bay  10.5   0.226    46.4  
#>  9  2017     9 AD     Boca Ciega Bay   2.45  0.0635   16.2  
#> 10  2017    10 AD     Boca Ciega Bay   0.709 0.0250    7.99 
#> # ℹ 662 more rows
…
