…
## Examples

``` r
tbwxlpth <- system.file('extdata/sprflow2224.xlsx', package = 'tbeploads')
wqpth    <- system.file('extdata/sprwq2224.csv',    package = 'tbeploads')

# monthly per-spring loads using a local water quality file
anlz_spr(tbwxlpth = tbwxlpth, wqpth = wqpth, yrrng = c(2022, 2024))
#> # A tibble: 108 × 10
#>     Year Month source segment   spring tn_load tp_load tss_load bod_load hy_load
#>    <dbl> <dbl> <chr>  <chr>     <chr>    <dbl>   <dbl>    <dbl>    <dbl>   <dbl>
#>  1  2022     1 SPR    Hillsbor… Buckh…    1.75  0.0370     3.10        0   0.703
#>  2  2022     2 SPR    Hillsbor… Buckh…    2.01  0.0425     3.56        0   0.807
#>  3  2022     3 SPR    Hillsbor… Buckh…    1.86  0.0395     3.30        0   0.750
#>  4  2022     4 SPR    Hillsbor… Buckh…    1.84  0.0389     3.26        0   0.739
#>  5  2022     5 SPR    Hillsbor… Buckh…    1.47  0.0311     2.60        0   0.590
#>  6  2022     6 SPR    Hillsbor… Buckh…    1.66  0.0351     2.94        0   0.666
#>  7  2022     7 SPR    Hillsbor… Buckh…    1.72  0.0365     3.06        0   0.694
#>  8  2022     8 SPR    Hillsbor… Buckh…    1.93  0.0408     3.42        0   0.775
#>  9  2022     9 SPR    Hillsbor… Buckh…    1.91  0.0405     3.40        0   0.770
#> 10  2022    10 SPR    Hillsbor… Buckh…    2.44  0.0517     4.33        0   0.983
#> # ℹ 98 more rows
…
# monthly segment-level totals
anlz_spr(tbwxlpth = tbwxlpth, wqpth = wqpth, yrrng = c(2022, 2024),
          summ = 'segment')
#> # A tibble: 36 × 9
#>     Year Month source segment          tn_load tp_load tss_load bod_load hy_load
#>    <dbl> <dbl> <chr>  <chr>              <dbl>   <dbl>    <dbl>    <dbl>   <dbl>
#>  1  2022     1 SPR    Hillsborough Bay   11.2    0.432     27.1        0    5.99
#>  2  2022     2 SPR    Hillsborough Bay   10.4    0.338     21.7        0    4.84
#>  3  2022     3 SPR    Hillsborough Bay    8.75   0.237     15.5        0    3.52
#>  4  2022     4 SPR    Hillsborough Bay    9.71   0.357     22.7        0    5.02
#>  5  2022     5 SPR    Hillsborough Bay    8.45   0.261     16.7        0    3.75
#>  6  2022     6 SPR    Hillsborough Bay    9.51   0.294     18.9        0    4.23
#>  7  2022     7 SPR    Hillsborough Bay   10.7    0.404     25.4        0    5.62
#>  8  2022     8 SPR    Hillsborough Bay   11.7    0.479     30.0        0    6.61
#>  9  2022     9 SPR    Hillsborough Bay   12.1    0.510     31.9        0    7.01
#> 10  2022    10 SPR    Hillsborough Bay   12.9    0.539     33.9        0    7.44
#> # ℹ 26 more rows
…
