Calculate spring loads to Hillsborough Bay — anlz_spr • tbeploads
…
Spatial summaries:
The data are summarized differently based on the summ and summtime arguments.  All loading data are summed based on these arguments, e.g., by bay segment (summ = 'segment') and year (summtime = 'year'). For springs, valid options for summ are
'spring' (one row per spring per time period), 'basin' (loads
summed within drainage basins: Lithia and Buckhorn combined into
"Alafia River", Sulphur into "Hillsborough River"), and
'segment' (all springs summed to bay segment 2, Hillsborough Bay).

    Examples

tbwxlpth <- system.file('extdata/sprflow2224.xlsx', package = 'tbeploads')
wqpth    <- system.file('extdata/sprwq2224.csv',    package = 'tbeploads')

# monthly per-spring loads (default)
anlz_spr(tbwxlpth = tbwxlpth, wqpth = wqpth, yrrng = c(2022, 2024))
#> # A tibble: 108 × 14
#>    source spring   site     segment    yr    mo flow_cfs tn_mgl tp_mgl tss_mgl
#>    <chr>  <chr>    <chr>      <int> <dbl> <dbl>    <dbl>  <dbl>  <dbl>   <dbl>
#>  1 SPRING Buckhorn 02301695       2  2022     1     9.46   2.26 0.0478       4
#>  2 SPRING Buckhorn 02301695       2  2022     2    10.8    2.26 0.0478       4
#>  3 SPRING Buckhorn 02301695       2  2022     3    10.1    2.26 0.0478       4
#>  4 SPRING Buckhorn 02301695       2  2022     4     9.94   2.26 0.0478       4
#>  5 SPRING Buckhorn 02301695       2  2022     5     7.94   2.26 0.0478       4
#>  6 SPRING Buckhorn 02301695       2  2022     6     8.96   2.26 0.0478       4
#>  7 SPRING Buckhorn 02301695       2  2022     7     9.33   2.26 0.0478       4
#>  8 SPRING Buckhorn 02301695       2  2022     8    10.4    2.26 0.0478       4
#>  9 SPRING Buckhorn 02301695       2  2022     9    10.4    2.26 0.0478       4
#> 10 SPRING Buckhorn 02301695       2  2022    10    13.2    2.26 0.0478       4
#> # ℹ 98 more rows
#> # ℹ 4 more variables: h2oload <dbl>, tnload <dbl>, tpload <dbl>, tssload <dbl>
…
# monthly segment-level totals
anlz_spr(tbwxlpth = tbwxlpth, wqpth = wqpth, yrrng = c(2022, 2024),
          summ = 'segment')
#> # A tibble: 36 × 8
#>    source segment    yr    mo  h2oload tnload tpload tssload
#>    <chr>    <int> <dbl> <dbl>    <dbl>  <dbl>  <dbl>   <dbl>
#>  1 SPRING       2  2022     1 5992578. 10138.   392.  24628.
#>  2 SPRING       2  2022     2 4842061.  9449.   307.  19658.
#>  3 SPRING       2  2022     3 3520026.  7945.   215.  14084.
#>  4 SPRING       2  2022     4 5021268.  8819.   324.  20574.
#>  5 SPRING       2  2022     5 3756722.  7675.   237.  15186.
#>  6 SPRING       2  2022     6 4234204.  8633.   267.  17119.
#>  7 SPRING       2  2022     7 5623595.  9685.   366.  23079.
#>  8 SPRING       2  2022     8 6611417. 10641.   435.  27275.
#>  9 SPRING       2  2022     9 7012684. 11028.   463.  28981.
#> 10 SPRING       2  2022    10 7447179. 11734.   489.  30772.
#> # ℹ 26 more rows
…
