…
The output format matches the standard point source input data frame
used by
[`anlz_dps_facility`](https://tbep-tech.github.io/tbeploads/reference/anlz_dps_facility.md).

## Examples

``` r
util_ps_pascoreuse(
  yr   = 2022:2024,
  res  = c(744120, 522273, 344189),
  golf = c(0, 0, 0),
  ribs = c(0, 0, 0),
  ag   = c(169, 269, 153)
)
#> # A tibble: 36 × 14
#>    Permit.Number Facility.Name Outfall.ID  Year Month Average.Daily.Flow..ADF.…¹
#>    <chr>         <chr>         <chr>      <int> <int>                      <dbl>
#>  1 PascoReuse    Pasco Reuse   R-001       2022     1                       1.00
#>  2 PascoReuse    Pasco Reuse   R-001       2022     2                       1.11
#>  3 PascoReuse    Pasco Reuse   R-001       2022     3                       1.00
#>  4 PascoReuse    Pasco Reuse   R-001       2022     4                       1.03
#>  5 PascoReuse    Pasco Reuse   R-001       2022     5                       1.00
#>  6 PascoReuse    Pasco Reuse   R-001       2022     6                       1.03
#>  7 PascoReuse    Pasco Reuse   R-001       2022     7                       1.00
#>  8 PascoReuse    Pasco Reuse   R-001       2022     8                       1.00
#>  9 PascoReuse    Pasco Reuse   R-001       2022     9                       1.03
#> 10 PascoReuse    Pasco Reuse   R-001       2022    10                       1.00
#> # ℹ 26 more rows
#> # ℹ abbreviated name: ¹​Average.Daily.Flow..ADF...mgd.
#> # ℹ 8 more variables: Total.N <dbl>, TN.Unit <chr>, Total.P <dbl>,
#> #   TP.Unit <chr>, TSS <dbl>, TSS.Unit <chr>, BOD <dbl>, BOD.Unit <chr>
```
