Domestic Point Source (DPS) • tbeploads
…
For convenience, four example files are included with the package.
These files represent actual entities and facilities, but the data have
been randomized. The paths to these files are used as input to the
function. Non-trivial data pre-processing and quality control is needed
for each file and those included in the package are the correct format.
The output is returned as tons per month for TN, TP, TSS, and BOD and
million cubic meters per month for flow (hy).

dpsfls <- list.files(system.file('extdata/', package = 'tbeploads'),
  pattern = 'ps_dom', full.names = TRUE)
anlz_dps_facility(dpsfls)
#> # A tibble: 144 × 11
#>     Year Month entity  facility coastco source tn_load tp_load tss_load bod_load
#>    <int> <int> <chr>   <chr>    <chr>   <chr>    <dbl>   <dbl>    <dbl>    <dbl>
#>  1  2021     1 Clearw… City of… 387     D-001    0.862  6.04     0.452     1.14 
#>  2  2021     2 Clearw… City of… 387     D-001    1.37   1.15     0.553     2.87 
#>  3  2021     3 Clearw… City of… 387     D-001    1.70   0.575    0.982     3.31 
#>  4  2021     4 Clearw… City of… 387     D-001    0.344  0.0801   0.105     0.656
#>  5  2021     5 Clearw… City of… 387     D-001    1.09   0.460    0.603     2.23 
#>  6  2021     6 Clearw… City of… 387     D-001    0.641  0.435    0.248     0.588
#>  7  2021     7 Clearw… City of… 387     D-001    0.667  0.183    0.360     1.33 
#>  8  2021     8 Clearw… City of… 387     D-001    0.138  0.164    0.0601    0.327
#>  9  2021     9 Clearw… City of… 387     D-001    0.421  1.63     0.281     0.655
#> 10  2021    10 Clearw… City of… 387     D-001    1.15   0.217    0.563     0.666
#> # ℹ 134 more rows
#> # ℹ 1 more variable: hy_load <dbl>
…
# combine by entity and month
anlz_dps(dpsfls, summ = 'entity', summtime = 'month')
#> # A tibble: 108 × 10
#>     Year Month source   entity segment tn_load tp_load tss_load bod_load hy_load
#>    <int> <int> <chr>    <chr>  <chr>     <dbl>   <dbl>    <dbl>    <dbl>   <dbl>
#>  1  2021     1 DPS - e… Clear… Old Ta…  0.862  6.04     0.452    1.14     0.663 
#>  2  2021     1 DPS - r… Clear… Old Ta…  0.102  0.00852  0.00844  0.0473   0.165 
#>  3  2021     2 DPS - e… Clear… Old Ta…  1.37   1.15     0.553    2.87     0.948 
#>  4  2021     2 DPS - r… Clear… Old Ta…  0.210  0.0416   0.0169   0.0244   0.319 
#>  5  2021     3 DPS - e… Clear… Old Ta…  1.70   0.575    0.982    3.31     1.83  
#>  6  2021     3 DPS - r… Clear… Old Ta…  0.261  0.0439   0.0194   0.0554   0.417 
#>  7  2021     4 DPS - e… Clear… Old Ta…  0.344  0.0801   0.105    0.656    0.194 
#>  8  2021     4 DPS - r… Clear… Old Ta…  0.0472 0.00602  0.00245  0.00499  0.0563
#>  9  2021     5 DPS - e… Clear… Old Ta…  1.09   0.460    0.603    2.23     0.874 
#> 10  2021     5 DPS - r… Clear… Old Ta…  0.0354 0.00281  0.00298  0.00885  0.0729
#> # ℹ 98 more rows
…
