Industrial Point Source (IPS) • tbeploads
…
For convenience, four example files are included with the package.
These files represent actual entities and facilities, but the data have
been randomized. The paths to these files are used as input to the
function. As before, non-trivial data pre-processing and quality control
is needed for each file and those included in the package are the
correct format. The output is returned as tons per month for TN, TP,
TSS, and BOD and million cubic meters per month for flow (hy).

ipsfls <- list.files(system.file('extdata/', package = 'tbeploads'),
  pattern = 'ps_ind_', full.names = TRUE)
anlz_ips_facility(ipsfls)
#> # A tibble: 60 × 11
#>     Year Month entity  facility coastco source tn_load tp_load tss_load bod_load
#>    <int> <int> <chr>   <chr>    <chr>   <chr>    <dbl>   <dbl>    <dbl>    <dbl>
#>  1  2020     1 Busch … Busch G… 191a    D-002   0.0195 0.00253    0.443    0.850
#>  2  2020     2 Busch … Busch G… 191a    D-002   0.0306 0.00328    0.544    1.04 
#>  3  2020     3 Busch … Busch G… 191a    D-002   0.0972 0.00925    1.39     2.68 
#>  4  2020     4 Busch … Busch G… 191a    D-002   0.0398 0.0258     0.522    1.00 
#>  5  2020     5 Busch … Busch G… 191a    D-002   0.0820 0.00514    0.506    0.971
#>  6  2020     6 Busch … Busch G… 191a    D-002   0.0112 0.00594    0.355    0.681
#>  7  2020     7 Busch … Busch G… 191a    D-002   0.0430 0.00413    0.506    0.971
#>  8  2020     8 Busch … Busch G… 191a    D-002   0.0167 0.00225    0.199    0.382
#>  9  2020     9 Busch … Busch G… 191a    D-002   0.0226 0.00307    0.332    0.638
#> 10  2020    10 Busch … Busch G… 191a    D-002   0.0187 0.0186     0.333    0.638
#> # ℹ 50 more rows
#> # ℹ 1 more variable: hy_load <dbl>
…
# combine by entity and month
anlz_ips(ipsfls, summ = 'entity', summtime = 'month')
#> # A tibble: 60 × 10
#>     Year Month source entity   segment tn_load tp_load tss_load bod_load hy_load
#>    <int> <int> <chr>  <chr>    <chr>     <dbl>   <dbl>    <dbl>    <dbl>   <dbl>
#>  1  2020     1 IPS    Busch G… Hillsb…  0.0195 0.00253    0.443    0.850  0.0804
#>  2  2020     2 IPS    Busch G… Hillsb…  0.0306 0.00328    0.544    1.04   0.0987
#>  3  2020     3 IPS    Busch G… Hillsb…  0.0972 0.00925    1.39     2.68   0.253 
#>  4  2020     4 IPS    Busch G… Hillsb…  0.0398 0.0258     0.522    1.00   0.0946
#>  5  2020     5 IPS    Busch G… Hillsb…  0.0820 0.00514    0.506    0.971  0.0917
#>  6  2020     6 IPS    Busch G… Hillsb…  0.0112 0.00594    0.355    0.681  0.0644
#>  7  2020     7 IPS    Busch G… Hillsb…  0.0430 0.00413    0.506    0.971  0.0918
#>  8  2020     8 IPS    Busch G… Hillsb…  0.0167 0.00225    0.199    0.382  0.0361
#>  9  2020     9 IPS    Busch G… Hillsb…  0.0226 0.00307    0.332    0.638  0.0603
#> 10  2020    10 IPS    Busch G… Hillsb…  0.0187 0.0186     0.333    0.638  0.0603
#> # ℹ 50 more rows
…
