…
For convenience, four example files are included with the package. These
files represent actual entities and facilities, but the data have been
randomized. The paths to these files are used as input to the function.
The output is nearly identical to the input data since no load
calculations are used, except results are shown as monthly load as the
annual loss divided by 12. Additional empty columns (e.g., TP load, TSS
load, etc.) are also returned for consistency of reporting with other
loading sources.

``` r

mlfls <- list.files(system.file('extdata/', package = 'tbeploads'),
  pattern = 'ps_indml', full.names = TRUE)
anlz_ml_facility(mlfls)
#> # A tibble: 60 × 11
#>     Year Month entity  facility coastco source tn_load tp_load tss_load bod_load
#>    <int> <int> <chr>   <chr>    <chr>   <lgl>    <dbl> <lgl>   <lgl>    <lgl>   
#>  1  2017     1 Kinder… Kinder … NA      NA      0.0155 NA      NA       NA      
#>  2  2017     2 Kinder… Kinder … NA      NA      0.0155 NA      NA       NA      
#>  3  2017     3 Kinder… Kinder … NA      NA      0.0155 NA      NA       NA      
#>  4  2017     4 Kinder… Kinder … NA      NA      0.0155 NA      NA       NA      
#>  5  2017     5 Kinder… Kinder … NA      NA      0.0155 NA      NA       NA      
#>  6  2017     6 Kinder… Kinder … NA      NA      0.0155 NA      NA       NA      
#>  7  2017     7 Kinder… Kinder … NA      NA      0.0155 NA      NA       NA      
#>  8  2017     8 Kinder… Kinder … NA      NA      0.0155 NA      NA       NA      
#>  9  2017     9 Kinder… Kinder … NA      NA      0.0155 NA      NA       NA      
#> 10  2017    10 Kinder… Kinder … NA      NA      0.0155 NA      NA       NA      
#> # ℹ 50 more rows
#> # ℹ 1 more variable: hy_load <lgl>
```
…
``` r

# combine by entity and month
anlz_ml(mlfls, summ = 'entity', summtime = 'month')
#> # A tibble: 60 × 10
#>     Year Month source entity segment   tn_load tp_load tss_load bod_load hy_load
#>    <int> <int> <chr>  <chr>  <chr>       <dbl>   <int>    <int>    <int>   <int>
#>  1  2020     1 ML     CSX    Hillsbor…  0.0743       0        0        0       0
#>  2  2020     2 ML     CSX    Hillsbor…  0.0743       0        0        0       0
#>  3  2020     3 ML     CSX    Hillsbor…  0.0743       0        0        0       0
#>  4  2020     4 ML     CSX    Hillsbor…  0.0743       0        0        0       0
#>  5  2020     5 ML     CSX    Hillsbor…  0.0743       0        0        0       0
#>  6  2020     6 ML     CSX    Hillsbor…  0.0743       0        0        0       0
#>  7  2020     7 ML     CSX    Hillsbor…  0.0743       0        0        0       0
#>  8  2020     8 ML     CSX    Hillsbor…  0.0743       0        0        0       0
#>  9  2020     9 ML     CSX    Hillsbor…  0.0743       0        0        0       0
#> 10  2020    10 ML     CSX    Hillsbor…  0.0743       0        0        0       0
#> # ℹ 50 more rows
…
