…
## Spatial summary

The `summ` argument controls the level of spatial aggregation.

`summ = 'spring'` (default) returns one row per spring per time period.

`summ = 'basin'` sums loads within drainage basins. Lithia and Buckhorn
are both assigned to the Alafia River basin and Sulphur is assigned to
the Hillsborough River basin as shown with the `majbasin` column.

``` r

anlz_spr(tbwxlpth = tbwxlpth, wqpth = wqpth, yrrng = c(2022, 2024),
         summ = 'basin', summtime = 'month')
#> # A tibble: 72 × 10
#>     Year Month source segment        majbasin tn_load  tp_load tss_load bod_load
#>    <dbl> <dbl> <chr>  <chr>          <chr>      <dbl>    <dbl>    <dbl>    <dbl>
#>  1  2022     1 SPR    Hillsborough … Alafia … 1.08e+1 0.297     19.2           0
#>  2  2022     1 SPR    Hillsborough … Hillsbo… 3.25e-1 0.135      7.97          0
#>  3  2022     2 SPR    Hillsborough … Alafia … 1.03e+1 0.279     18.1           0
#>  4  2022     2 SPR    Hillsborough … Hillsbo… 1.43e-1 0.0593     3.51          0
#>  5  2022     3 SPR    Hillsborough … Alafia … 8.75e+0 0.236     15.5           0
#>  6  2022     3 SPR    Hillsborough … Hillsbo… 1.94e-3 0.000804   0.0476        0
#>  7  2022     4 SPR    Hillsborough … Alafia … 9.47e+0 0.257     16.7           0
#>  8  2022     4 SPR    Hillsborough … Hillsbo… 2.42e-1 0.1000     5.92          0
#>  9  2022     5 SPR    Hillsborough … Alafia … 8.38e+0 0.229     14.8           0
#> 10  2022     5 SPR    Hillsborough … Hillsbo… 7.86e-2 0.0325     1.92          0
#> # ℹ 62 more rows
#> # ℹ 1 more variable: hy_load <dbl>
```

`summ = 'segment'` sums all three springs to the single bay segment
(segment 2, Hillsborough Bay).

``` r

anlz_spr(tbwxlpth = tbwxlpth, wqpth = wqpth, yrrng = c(2022, 2024),
         summ = 'segment', summtime = 'month')
#> # A tibble: 36 × 9
#>     Year Month source segment          tn_load tp_load tss_load bod_load hy_load
#>    <dbl> <dbl> <chr>  <chr>              <dbl>   <dbl>    <dbl>    <dbl>   <dbl>
#>  1  2022     1 SPR    Hillsborough Bay   11.2    0.432     27.1        0    5.99
#>  2  2022     2 SPR    Hillsborough Bay   10.4    0.338     21.7        0    4.84
#>  3  2022     3 SPR    Hillsborough Bay    8.75   0.237     15.5        0    3.52
#>  4  2022     4 SPR    Hillsborough Bay    9.71   0.357     22.7        0    5.02
#>  5  2022     5 SPR    Hillsborough Bay    8.45   0.261     16.7        0    3.75
#>  6  2022     6 SPR    Hillsborough Bay    9.51   0.294     18.9        0    4.23
#>  7  2022     7 SPR    Hillsborough Bay   10.7    0.404     25.4        0    5.62
#>  8  2022     8 SPR    Hillsborough Bay   11.7    0.479     30.0        0    6.61
#>  9  2022     9 SPR    Hillsborough Bay   12.1    0.510     31.9        0    7.01
#> 10  2022    10 SPR    Hillsborough Bay   12.9    0.539     33.9        0    7.44
#> # ℹ 26 more rows
```
…
