Springs (SPR) • tbeploads
…
The summ argument controls the level of spatial
aggregation.

summ = 'spring' (default) returns one row per spring per
time period.

summ = 'basin' sums loads within drainage basins. Lithia
and Buckhorn are both assigned to the Alafia River basin and Sulphur is
assigned to the Hillsborough River basin as shown with the
majbasin column.

anlz_spr(tbwxlpth = tbwxlpth, wqpth = wqpth, yrrng = c(2022, 2024),
         summ = 'basin', summtime = 'month')
#> # A tibble: 72 × 10
#>     Year Month source segment majbasin tn_load tp_load tss_load bod_load hy_load
#>    <dbl> <dbl> <chr>  <chr>   <chr>      <dbl>   <dbl>    <dbl>    <dbl>   <dbl>
#>  1  2022     1 SPR    Hillsb… Alafia … 1.08e+1 2.97e-1  19.2           0 4.35   
#>  2  2022     1 SPR    Hillsb… Hillsbo… 3.26e-1 1.35e-1   7.97          0 1.64   
#>  3  2022     2 SPR    Hillsb… Alafia … 1.03e+1 2.79e-1  18.2           0 4.12   
#>  4  2022     2 SPR    Hillsb… Hillsbo… 1.43e-1 5.93e-2   3.51          0 0.724  
#>  5  2022     3 SPR    Hillsb… Alafia … 8.76e+0 2.36e-1  15.5           0 3.51   
#>  6  2022     3 SPR    Hillsb… Hillsbo… 1.95e-3 8.05e-4   0.0476        0 0.00982
#>  7  2022     4 SPR    Hillsb… Alafia … 9.48e+0 2.57e-1  16.8           0 3.80   
#>  8  2022     4 SPR    Hillsb… Hillsbo… 2.42e-1 1.00e-1   5.92          0 1.22   
#>  9  2022     5 SPR    Hillsb… Alafia … 8.38e+0 2.29e-1  14.8           0 3.36   
#> 10  2022     5 SPR    Hillsb… Hillsbo… 7.86e-2 3.25e-2   1.93          0 0.397  
#> # ℹ 62 more rows

summ = 'segment' sums all three springs to the single
bay segment (segment 2, Hillsborough Bay).

anlz_spr(tbwxlpth = tbwxlpth, wqpth = wqpth, yrrng = c(2022, 2024),
         summ = 'segment', summtime = 'month')
#> # A tibble: 36 × 9
#>     Year Month source segment          tn_load tp_load tss_load bod_load hy_load
#>    <dbl> <dbl> <chr>  <chr>              <dbl>   <dbl>    <dbl>    <dbl>   <dbl>
#>  1  2022     1 SPR    Hillsborough Bay   11.2    0.432     27.1        0    5.99
#>  2  2022     2 SPR    Hillsborough Bay   10.4    0.338     21.7        0    4.84
#>  3  2022     3 SPR    Hillsborough Bay    8.76   0.237     15.5        0    3.52
#>  4  2022     4 SPR    Hillsborough Bay    9.72   0.357     22.7        0    5.02
#>  5  2022     5 SPR    Hillsborough Bay    8.46   0.261     16.7        0    3.76
#>  6  2022     6 SPR    Hillsborough Bay    9.52   0.295     18.9        0    4.23
#>  7  2022     7 SPR    Hillsborough Bay   10.7    0.404     25.4        0    5.62
#>  8  2022     8 SPR    Hillsborough Bay   11.7    0.479     30.1        0    6.61
#>  9  2022     9 SPR    Hillsborough Bay   12.2    0.511     31.9        0    7.01
#> 10  2022    10 SPR    Hillsborough Bay   12.9    0.539     33.9        0    7.45
#> # ℹ 26 more rows
…
