Getting started • tbeploads
…
For convenience, three example files are included with the package.
These files are used as input to the function. Non-trivial data
preprocessing is needed for each file and those included in the package
are the correct format.

fls <- list.files(system.file('extdata/', package = 'tbeploads'),
  pattern = '\\.txt$', full.names = TRUE)
anlz_dps_entity(fls)
#> # A tibble: 120 × 11
#>     Year Month entity  facility coastco source tn_load tp_load tss_load bod_load
#>    <int> <int> <chr>   <chr>    <chr>   <chr>    <dbl>   <dbl>    <dbl>    <dbl>
#>  1  2021     1 Clearw… City of… 387     D-001   0.617   0.0301  0.251     1.65  
#>  2  2021     2 Clearw… City of… 387     D-001   0.789   0.373   0.279     2.24  
#>  3  2021     3 Clearw… City of… 387     D-001   0.393   0.344   0.135     0.842 
#>  4  2021     4 Clearw… City of… 387     D-001   0.299   0.234   0.141     0.760 
#>  5  2021     5 Clearw… City of… 387     D-001   0.0123  0.0171  0.00776   0.0447
#>  6  2021     6 Clearw… City of… 387     D-001   0.194   0.320   0.113     0.527 
#>  7  2021     7 Clearw… City of… 387     D-001   0.610   0.683   0.302     0.604 
#>  8  2021     8 Clearw… City of… 387     D-001   0.534   0.487   0.315     0.594 
#>  9  2021     9 Clearw… City of… 387     D-001   1.01    1.07    0.534     0.762 
#> 10  2021    10 Clearw… City of… 387     D-001   0.310   0.324   0.135     0.237 
#> # ℹ 110 more rows
#> # ℹ 1 more variable: hy_load <dbl>
…
