…
For convenience, four example files are included with the package. These
files represent actual entities and facilities, but the data have been
randomized. The paths to these files are used as input to the function.
Non-trivial data pre-processing and quality control is needed for each
file and those included in the package are the correct format. The
output is returned as tons per month for TN, TP, TSS, and BOD and
million cubic meters per month for flow (hy).

``` r
dpsfls <- list.files(system.file('extdata/', package = 'tbeploads'),
  pattern = 'ps_dom', full.names = TRUE)
anlz_dps_facility(dpsfls)
#> # A tibble: 144 × 11
#>     Year Month entity  facility coastco source tn_load tp_load tss_load bod_load
#>    <int> <int> <chr>   <chr>    <chr>   <chr>    <dbl>   <dbl>    <dbl>    <dbl>
#>  1  2021     1 Clearw… City of… 387     D-001    0.862  6.04     0.452     1.14 
#>  2  2021     2 Clearw… City of… 387     D-001    1.37   1.15     0.553     2.87 
#>  3  2021     3 Clearw… City of… 387     D-001    1.70   0.575    0.982     3.31 
#>  4  2021     4 Clearw… City of… 387     D-001    0.344  0.0801   0.105     0.656
#>  5  2021     5 Clearw… City of… 387     D-001    1.09   0.460    0.603     2.23 
#>  6  2021     6 Clearw… City of… 387     D-001    0.641  0.435    0.248     0.588
#>  7  2021     7 Clearw… City of… 387     D-001    0.667  0.183    0.360     1.33 
#>  8  2021     8 Clearw… City of… 387     D-001    0.138  0.164    0.0601    0.327
#>  9  2021     9 Clearw… City of… 387     D-001    0.421  1.63     0.281     0.655
#> 10  2021    10 Clearw… City of… 387     D-001    1.15   0.217    0.563     0.666
#> # ℹ 134 more rows
#> # ℹ 1 more variable: hy_load <dbl>
```
…
``` r
# combine by entity and month
anlz_dps(dpsfls, summ = 'entity', summtime = 'month')
#> # A tibble: 108 × 10
#>     Year Month source   entity segment tn_load tp_load tss_load bod_load hy_load
#>    <int> <int> <chr>    <chr>  <chr>     <dbl>   <dbl>    <dbl>    <dbl>   <dbl>
#>  1  2021     1 DPS - e… Clear… Old Ta…  0.862  6.04     0.452    1.14     0.663 
#>  2  2021     1 DPS - r… Clear… Old Ta…  0.102  0.00852  0.00844  0.0473   0.165 
#>  3  2021     2 DPS - e… Clear… Old Ta…  1.37   1.15     0.553    2.87     0.948 
#>  4  2021     2 DPS - r… Clear… Old Ta…  0.210  0.0416   0.0169   0.0244   0.319 
#>  5  2021     3 DPS - e… Clear… Old Ta…  1.70   0.575    0.982    3.31     1.83  
#>  6  2021     3 DPS - r… Clear… Old Ta…  0.261  0.0439   0.0194   0.0554   0.417 
#>  7  2021     4 DPS - e… Clear… Old Ta…  0.344  0.0801   0.105    0.656    0.194 
#>  8  2021     4 DPS - r… Clear… Old Ta…  0.0472 0.00602  0.00245  0.00499  0.0563
#>  9  2021     5 DPS - e… Clear… Old Ta…  1.09   0.460    0.603    2.23     0.874 
#> 10  2021     5 DPS - r… Clear… Old Ta…  0.0354 0.00281  0.00298  0.00885  0.0729
#> # ℹ 98 more rows
…
For convenience, four example files are included with the package. These
files represent actual entities and facilities, but the data have been
randomized. The paths to these files are used as input to the function.
As before, non-trivial data pre-processing and quality control is needed
for each file and those included in the package are the correct format.
The output is returned as tons per month for TN, TP, TSS, and BOD and
million cubic meters per month for flow (hy).

``` r
ipsfls <- list.files(system.file('extdata/', package = 'tbeploads'),
  pattern = 'ps_ind_', full.names = TRUE)
anlz_ips_facility(ipsfls)
#> # A tibble: 60 × 11
#>     Year Month entity  facility coastco source tn_load tp_load tss_load bod_load
#>    <int> <int> <chr>   <chr>    <chr>   <chr>    <dbl>   <dbl>    <dbl>    <dbl>
#>  1  2020     1 Busch … Busch G… 191a    D-002   0.0195 0.00253    0.443    0.850
#>  2  2020     2 Busch … Busch G… 191a    D-002   0.0306 0.00328    0.544    1.04 
#>  3  2020     3 Busch … Busch G… 191a    D-002   0.0972 0.00925    1.39     2.68 
#>  4  2020     4 Busch … Busch G… 191a    D-002   0.0398 0.0258     0.522    1.00 
#>  5  2020     5 Busch … Busch G… 191a    D-002   0.0820 0.00514    0.506    0.971
#>  6  2020     6 Busch … Busch G… 191a    D-002   0.0112 0.00594    0.355    0.681
#>  7  2020     7 Busch … Busch G… 191a    D-002   0.0430 0.00413    0.506    0.971
#>  8  2020     8 Busch … Busch G… 191a    D-002   0.0167 0.00225    0.199    0.382
#>  9  2020     9 Busch … Busch G… 191a    D-002   0.0226 0.00307    0.332    0.638
#> 10  2020    10 Busch … Busch G… 191a    D-002   0.0187 0.0186     0.333    0.638
#> # ℹ 50 more rows
#> # ℹ 1 more variable: hy_load <dbl>
```
…
``` r
# combine by entity and month
anlz_ips(ipsfls, summ = 'entity', summtime = 'month')
#> # A tibble: 60 × 10
#>     Year Month source entity   segment tn_load tp_load tss_load bod_load hy_load
#>    <int> <int> <chr>  <chr>    <chr>     <dbl>   <dbl>    <dbl>    <dbl>   <dbl>
#>  1  2020     1 IPS    Busch G… Hillsb…  0.0195 0.00253    0.443    0.850  0.0804
#>  2  2020     2 IPS    Busch G… Hillsb…  0.0306 0.00328    0.544    1.04   0.0987
#>  3  2020     3 IPS    Busch G… Hillsb…  0.0972 0.00925    1.39     2.68   0.253 
#>  4  2020     4 IPS    Busch G… Hillsb…  0.0398 0.0258     0.522    1.00   0.0946
#>  5  2020     5 IPS    Busch G… Hillsb…  0.0820 0.00514    0.506    0.971  0.0917
#>  6  2020     6 IPS    Busch G… Hillsb…  0.0112 0.00594    0.355    0.681  0.0644
#>  7  2020     7 IPS    Busch G… Hillsb…  0.0430 0.00413    0.506    0.971  0.0918
#>  8  2020     8 IPS    Busch G… Hillsb…  0.0167 0.00225    0.199    0.382  0.0361
#>  9  2020     9 IPS    Busch G… Hillsb…  0.0226 0.00307    0.332    0.638  0.0603
#> 10  2020    10 IPS    Busch G… Hillsb…  0.0187 0.0186     0.333    0.638  0.0603
#> # ℹ 50 more rows
…
For convenience, four example files are included with the package. These
files represent actual entities and facilities, but the data have been
randomized. The paths to these files are used as input to the function.
The output is nearly identical to the input data since no load
calculations are used, except results are shown as monthly load as the
annual loss divided by 12. Additional empty columns (e.g., TP load, TSS
load, etc.) are also returned for consistency of reporting with other
loading sources.

``` r
mlfls <- list.files(system.file('extdata/', package = 'tbeploads'),
  pattern = 'ps_indml', full.names = TRUE)
anlz_ml_facility(mlfls)
#> # A tibble: 60 × 11
#>     Year Month entity  facility coastco source tn_load tp_load tss_load bod_load
#>    <int> <int> <chr>   <chr>    <chr>   <lgl>    <dbl> <lgl>   <lgl>    <lgl>   
#>  1  2017     1 Kinder… Kinder … NA      NA      0.0155 NA      NA       NA      
#>  2  2017     2 Kinder… Kinder … NA      NA      0.0155 NA      NA       NA      
#>  3  2017     3 Kinder… Kinder … NA      NA      0.0155 NA      NA       NA      
#>  4  2017     4 Kinder… Kinder … NA      NA      0.0155 NA      NA       NA      
#>  5  2017     5 Kinder… Kinder … NA      NA      0.0155 NA      NA       NA      
#>  6  2017     6 Kinder… Kinder … NA      NA      0.0155 NA      NA       NA      
#>  7  2017     7 Kinder… Kinder … NA      NA      0.0155 NA      NA       NA      
#>  8  2017     8 Kinder… Kinder … NA      NA      0.0155 NA      NA       NA      
#>  9  2017     9 Kinder… Kinder … NA      NA      0.0155 NA      NA       NA      
#> 10  2017    10 Kinder… Kinder … NA      NA      0.0155 NA      NA       NA      
#> # ℹ 50 more rows
#> # ℹ 1 more variable: hy_load <lgl>
```
…
``` r
# combine by entity and month
anlz_ml(mlfls, summ = 'entity', summtime = 'month')
#> # A tibble: 60 × 10
#>     Year Month source entity segment   tn_load tp_load tss_load bod_load hy_load
#>    <int> <int> <chr>  <chr>  <chr>       <dbl>   <int>    <int>    <int>   <int>
#>  1  2020     1 ML     CSX    Hillsbor…  0.0743       0        0        0       0
#>  2  2020     2 ML     CSX    Hillsbor…  0.0743       0        0        0       0
#>  3  2020     3 ML     CSX    Hillsbor…  0.0743       0        0        0       0
#>  4  2020     4 ML     CSX    Hillsbor…  0.0743       0        0        0       0
#>  5  2020     5 ML     CSX    Hillsbor…  0.0743       0        0        0       0
#>  6  2020     6 ML     CSX    Hillsbor…  0.0743       0        0        0       0
#>  7  2020     7 ML     CSX    Hillsbor…  0.0743       0        0        0       0
#>  8  2020     8 ML     CSX    Hillsbor…  0.0743       0        0        0       0
#>  9  2020     9 ML     CSX    Hillsbor…  0.0743       0        0        0       0
#> 10  2020    10 ML     CSX    Hillsbor…  0.0743       0        0        0       0
#> # ℹ 50 more rows
…
The total nitrogen and phosphorus loads are then estimated for each bay
segment by multiplying the total hydrologic load by the total nitrogen
and phosphorus concentrations in the Verna data. The loading
calculations also include a wet/dry deposition conversion factor to
account for differences in loading during the rainy and dry seasons.

Using
[`anlz_ad()`](https://tbep-tech.github.io/tbeploads/reference/anlz_ad.md)
to estimate AD load is done as follows, where
[`rain`](https://tbep-tech.github.io/tbeploads/reference/rain.md) is the
rain data and `vernafl` is the path to the Verna Wellfield data.

``` r
anlz_ad(rain, vernafl)
#> # A tibble: 672 × 7
#>     Year Month source segment        tn_load tp_load hy_load
#>    <int> <dbl> <chr>  <chr>            <dbl>   <dbl>   <dbl>
#>  1  2017     1 AD     Boca Ciega Bay   0.721  0.0140    1.98
#>  2  2017     2 AD     Boca Ciega Bay   0.945  0.0168    1.95
#>  3  2017     3 AD     Boca Ciega Bay   0.950  0.0181    2.48
#>  4  2017     4 AD     Boca Ciega Bay   3.05   0.0482    3.90
#>  5  2017     5 AD     Boca Ciega Bay   9.06   0.131     6.89
#>  6  2017     6 AD     Boca Ciega Bay   9.67   0.178    22.5 
#>  7  2017     7 AD     Boca Ciega Bay  10.8    0.189    26.2 
#>  8  2017     8 AD     Boca Ciega Bay   5.58   0.120    24.6 
#>  9  2017     9 AD     Boca Ciega Bay   2.14   0.0553   14.1 
#> 10  2017    10 AD     Boca Ciega Bay   2.03   0.0368    5.56
#> # ℹ 662 more rows
```
…
#### Spatial summary

The `summ` argument controls the level of spatial aggregation.

`summ = 'spring'` (default) returns one row per spring per time period.

`summ = 'basin'` sums loads within drainage basins. Lithia and Buckhorn
are both assigned to the Alafia River basin and Sulphur is assigned to
the Hillsborough River basin as shown with the `majbasin` column.

``` r
anlz_spr(tbwxlpth = tbwxlpth, wqpth = wqpth, yrrng = c(2022, 2024),
         summ = 'basin', summtime = 'month')
#> # A tibble: 72 × 10
#>     Year Month source segment majbasin tn_load tp_load tss_load bod_load hy_load
#>    <dbl> <dbl> <chr>  <chr>   <chr>      <dbl>   <dbl>    <dbl>    <dbl>   <dbl>
#>  1  2022     1 SPR    Hillsb… Alafia … 1.08e+1 2.97e-1  19.2           0 4.35   
#>  2  2022     1 SPR    Hillsb… Hillsbo… 3.26e-1 1.35e-1   7.97          0 1.64   
#>  3  2022     2 SPR    Hillsb… Alafia … 1.03e+1 2.79e-1  18.2           0 4.12   
#>  4  2022     2 SPR    Hillsb… Hillsbo… 1.43e-1 5.93e-2   3.51          0 0.724  
#>  5  2022     3 SPR    Hillsb… Alafia … 8.76e+0 2.36e-1  15.5           0 3.51   
#>  6  2022     3 SPR    Hillsb… Hillsbo… 1.95e-3 8.05e-4   0.0476        0 0.00982
#>  7  2022     4 SPR    Hillsb… Alafia … 9.48e+0 2.57e-1  16.8           0 3.80   
#>  8  2022     4 SPR    Hillsb… Hillsbo… 2.42e-1 1.00e-1   5.92          0 1.22   
#>  9  2022     5 SPR    Hillsb… Alafia … 8.38e+0 2.29e-1  14.8           0 3.36   
#> 10  2022     5 SPR    Hillsb… Hillsbo… 7.86e-2 3.25e-2   1.93          0 0.397  
#> # ℹ 62 more rows
```

`summ = 'segment'` sums all three springs to the single bay segment
(segment 2, Hillsborough Bay).

``` r
anlz_spr(tbwxlpth = tbwxlpth, wqpth = wqpth, yrrng = c(2022, 2024),
         summ = 'segment', summtime = 'month')
#> # A tibble: 36 × 9
#>     Year Month source segment          tn_load tp_load tss_load bod_load hy_load
#>    <dbl> <dbl> <chr>  <chr>              <dbl>   <dbl>    <dbl>    <dbl>   <dbl>
#>  1  2022     1 SPR    Hillsborough Bay   11.2    0.432     27.1        0    5.99
#>  2  2022     2 SPR    Hillsborough Bay   10.4    0.338     21.7        0    4.84
#>  3  2022     3 SPR    Hillsborough Bay    8.76   0.237     15.5        0    3.52
#>  4  2022     4 SPR    Hillsborough Bay    9.72   0.357     22.7        0    5.02
#>  5  2022     5 SPR    Hillsborough Bay    8.46   0.261     16.7        0    3.76
#>  6  2022     6 SPR    Hillsborough Bay    9.52   0.295     18.9        0    4.23
#>  7  2022     7 SPR    Hillsborough Bay   10.7    0.404     25.4        0    5.62
#>  8  2022     8 SPR    Hillsborough Bay   11.7    0.479     30.1        0    6.61
#>  9  2022     9 SPR    Hillsborough Bay   12.2    0.511     31.9        0    7.01
#> 10  2022    10 SPR    Hillsborough Bay   12.9    0.539     33.9        0    7.45
#> # ℹ 26 more rows
```
…
